\BOOKMARK [0][-]{chapter.1}{Structure of Visual Odometry Pipeline}{}% 1
\BOOKMARK [1][-]{section.1.1}{Graphical Illustration of our VO Concept }{chapter.1}% 2
\BOOKMARK [1][-]{section.1.2}{Description of our Algorithm}{chapter.1}% 3
\BOOKMARK [1][-]{section.1.3}{Rough Overview of our Code}{chapter.1}% 4
\BOOKMARK [1][-]{section.1.4}{Data Structure}{chapter.1}% 5
\BOOKMARK [0][-]{chapter.2}{Main File}{}% 6
\BOOKMARK [1][-]{section.2.1}{Creating a Parallel Pool for RANSAC \(parallel pool part in main.m\)}{chapter.2}% 7
\BOOKMARK [1][-]{section.2.2}{Continuous Operation Part in main.m}{chapter.2}% 8
\BOOKMARK [0][-]{chapter.3}{Description of the most Important Functions}{}% 9
\BOOKMARK [1][-]{section.3.1}{Creating the VO Interface \(plotVO.m\)}{chapter.3}% 10
\BOOKMARK [1][-]{section.3.2}{Get Corners \(getCorners.m\)}{chapter.3}% 11
\BOOKMARK [1][-]{section.3.3}{Match Corners \(matchCorners.m\)}{chapter.3}% 12
\BOOKMARK [1][-]{section.3.4}{Removing Outliers \(ransac8point\137parallel.m\)}{chapter.3}% 13
\BOOKMARK [1][-]{section.3.5}{Get Landmarks \(getLandmarks.m\)}{chapter.3}% 14
\BOOKMARK [1][-]{section.3.6}{Camera Position \(ransacP3P\137pos\137cal\137parallel.m\)}{chapter.3}% 15
\BOOKMARK [0][-]{chapter.4}{Remarks}{}% 16
\BOOKMARK [1][-]{section.4.1}{Buffer}{chapter.4}% 17
\BOOKMARK [1][-]{section.4.2}{Windowed Bundle Adjustment}{chapter.4}% 18
\BOOKMARK [1][-]{section.4.3}{Relative Scale Factor}{chapter.4}% 19
