\relax 
\providecommand\hyper@newdestlabel[2]{}
\providecommand\HyperFirstAtBeginDocument{\AtBeginDocument}
\HyperFirstAtBeginDocument{\ifx\hyper@anchor\@undefined
\global\let\oldcontentsline\contentsline
\gdef\contentsline#1#2#3#4{\oldcontentsline{#1}{#2}{#3}}
\global\let\oldnewlabel\newlabel
\gdef\newlabel#1#2{\newlabelxx{#1}#2}
\gdef\newlabelxx#1#2#3#4#5#6{\oldnewlabel{#1}{{#2}{#3}}}
\AtEndDocument{\ifx\hyper@anchor\@undefined
\let\contentsline\oldcontentsline
\let\newlabel\oldnewlabel
\fi}
\fi}
\global\let\hyper@last\relax 
\gdef\HyperFirstAtBeginDocument#1{#1}
\providecommand\HyField@AuxAddToFields[1]{}
\providecommand\HyField@AuxAddToCoFields[2]{}
\citation{VO1}
\citation{VO2}
\@writefile{toc}{\contentsline {chapter}{\numberline {1}Structure of Visual Odometry Pipeline}{1}{chapter.1}}
\@writefile{lof}{\addvspace {10\p@ }}
\@writefile{lot}{\addvspace {10\p@ }}
\@writefile{toc}{\contentsline {section}{\numberline {1.1}Graphical Illustration of our VO Concept }{1}{section.1.1}}
\@writefile{lof}{\contentsline {figure}{\numberline {1.1}{\ignorespaces Main Components of our VO Pipeline \cite  {VO1,VO2}}}{1}{figure.1.1}}
\newlabel{Fig:VO}{{1.1}{1}{Main Components of our VO Pipeline \cite {VO1,VO2}}{figure.1.1}{}}
\newlabel{Fig:VO@cref}{{[figure][1][1]1.1}{1}}
\@writefile{toc}{\contentsline {section}{\numberline {1.2}Description of our Algorithm}{1}{section.1.2}}
\citation{VO1}
\@writefile{toc}{\contentsline {section}{\numberline {1.3}Rough Overview of our Code}{3}{section.1.3}}
\@writefile{toc}{\contentsline {section}{\numberline {1.4}Data Structure}{5}{section.1.4}}
\citation{VO1}
\@writefile{toc}{\contentsline {chapter}{\numberline {2}Main File}{6}{chapter.2}}
\@writefile{lof}{\addvspace {10\p@ }}
\@writefile{lot}{\addvspace {10\p@ }}
\@writefile{toc}{\contentsline {section}{\numberline {2.1}Creating a Parallel Pool for RANSAC (parallel pool part in main.m)}{6}{section.2.1}}
\@writefile{toc}{\contentsline {section}{\numberline {2.2}Continuous Operation Part in main.m}{6}{section.2.2}}
\@writefile{toc}{\contentsline {chapter}{\numberline {3}Description of the most Important Functions}{8}{chapter.3}}
\@writefile{lof}{\addvspace {10\p@ }}
\@writefile{lot}{\addvspace {10\p@ }}
\@writefile{toc}{\contentsline {section}{\numberline {3.1}Creating the VO Interface (plotVO.m)}{8}{section.3.1}}
\@writefile{toc}{\contentsline {section}{\numberline {3.2}Get Corners (getCorners.m)}{8}{section.3.2}}
\@writefile{toc}{\contentsline {section}{\numberline {3.3}Match Corners (matchCorners.m)}{9}{section.3.3}}
\@writefile{toc}{\contentsline {section}{\numberline {3.4}Removing Outliers (ransac8point\_parallel.m)}{9}{section.3.4}}
\@writefile{toc}{\contentsline {section}{\numberline {3.5}Get Landmarks (getLandmarks.m)}{10}{section.3.5}}
\@writefile{toc}{\contentsline {section}{\numberline {3.6}Camera Position (ransacP3P\_pos\_cal\_parallel.m)}{10}{section.3.6}}
\@writefile{toc}{\contentsline {chapter}{\numberline {4}Remarks}{11}{chapter.4}}
\@writefile{lof}{\addvspace {10\p@ }}
\@writefile{lot}{\addvspace {10\p@ }}
\@writefile{toc}{\contentsline {section}{\numberline {4.1}Buffer}{11}{section.4.1}}
\@writefile{toc}{\contentsline {section}{\numberline {4.2}Windowed Bundle Adjustment}{11}{section.4.2}}
\@writefile{toc}{\contentsline {section}{\numberline {4.3}Relative Scale Factor}{11}{section.4.3}}
\bibstyle{plain}
\bibdata{bibliography}
\bibcite{VO1}{1}
\bibcite{VO2}{2}
